app,source,category
Armin2208.WindowsAutoNightMode,winget,desktop
TIDALMusicAS.TIDAL,winget,media
CascadiaCode-NF,scoop,desktop
autohotkey,scoop,desktop
allsnap,scoop,desktop
pandoc,scoop,office
typst,scoop,office
marksman,scoop,office
python,scoop,programming
poetry,scoop,programming
ruff,scoop,programming
rustup,scoop,programming
taplo,scoop,programming
git,scoop,utilities
nu,scoop,utilities
pwsh,scoop,utilities
helix,scoop,utilities
yazi,scoop,utilities
eza,scoop,utilities
zoxide,scoop,utilities
bat,scoop,utilities
fd,scoop,utilities
delta,scoop,utilities
ripgrep,scoop,utilities
fzf,scoop,utilities
alacritty,scoop,utilities
bottom,scoop,utilities
gitui,scoop,utilities
fastfetch,scoop,utilities
harper-ls,crates.io,office
fastmod,crates.io,utilities
isw,crates.io,utilities
